{
    "assets": [
        {
            "id": 31,
            "src": "components/c2426db7-0adf-4182-89f6-9eebf5faffbc.png",
            "type": "texture"
        },
        {
            "id": 32,
            "src": "components/60013c8c-ce6b-461e-8919-d83fad78b115.png",
            "type": "texture"
        },
        {
            "id": 33,
            "src": "components/ae82c73f-2a46-4e72-941d-d592fdbf0fc1.png",
            "type": "texture"
        },
        {
            "id": 34,
            "src": "components/be90f404-799a-4de9-8200-fa2d4326074f.png",
            "type": "texture"
        },
        {
            "id": 35,
            "src": "components/c09a0125-182b-4312-b5d2-7fe2f1e21bbb.png",
            "type": "texture"
        },
        {
            "id": 36,
            "src": "components/a87a0883-a03a-41b0-b58e-018c477a199c.png",
            "type": "texture"
        },
        {
            "id": 37,
            "src": "components/11a9ea01-0450-4cff-a801-2e576e3783b5.png",
            "type": "texture"
        },
        {
            "id": 38,
            "src": "components/fd2b1a3d-04db-479a-b9f6-919a066e193a.png",
            "type": "texture"
        },
        {
            "id": 39,
            "src": "components/d820a263-e8d5-4c8c-9308-a528e58565c2.png",
            "type": "texture"
        },
        {
            "id": 40,
            "src": "components/007fc0cc-267d-4156-aada-1b14a7b2bfac.png",
            "type": "texture"
        },
        {
            "id": 41,
            "src": "components/2a0dc148-45e9-4f15-a3a6-ca2b31b2c036.png",
            "type": "texture"
        },
        {
            "id": 42,
            "src": "components/a65bbc5f-b9f9-4f65-ab22-4bca8da7248a.png",
            "type": "texture"
        },
        {
            "id": 43,
            "src": "components/af855940-1cd0-4b49-9af4-08872c263ab0.png",
            "type": "texture"
        },
        {
            "id": 44,
            "src": "components/ab9fdcb1-2b41-4963-9c13-eed89041ed7d.png",
            "type": "texture"
        },
        {
            "id": 45,
            "src": "components/b6083dad-791c-43db-ae6f-61c99e943a09.png",
            "type": "texture"
        },
        {
            "id": 46,
            "src": "components/e85c249b-b34c-4da8-a9c6-26f452cbe1ac.png",
            "type": "texture"
        },
        {
            "id": 47,
            "src": "components/bd9eda33-3125-4cca-9806-baf113e9dbd6.png",
            "type": "texture"
        }
    ]
}