{
    "joints": [
        {
            "component": "Pelvis",
            "joint": {
                "child": "Pelvis",
                "parent": "IN"
            },
            "percentages": {
                "x": 0.43833321387614677,
                "y": 0.707014492753623
            }
        },
        {
            "component": "Pelvis",
            "joint": {
                "child": "Left Leg",
                "parent": "Pelvis"
            },
            "percentages": {
                "x": 0.2567015481651376,
                "y": 0.14179710144927524
            }
        },
        {
            "component": "Pelvis",
            "joint": {
                "child": "Right Leg",
                "parent": "Pelvis"
            },
            "percentages": {
                "x": 0.7298326404816514,
                "y": 0.22875362318840567
            }
        }
    ],
    "textures": [
        {
            "component": "Pelvis",
            "id": 47
        }
    ]
}